…
    ## Parsed with column specification:
    ## cols(
    ##   category = col_character(),
    ##   language = col_character(),
    ##   mother_tongue = col_double(),
    ##   most_at_home = col_double(),
    ##   most_at_work = col_double(),
    ##   lang_known = col_double()
    ## )

``` r
can_lang3
```

    ## # A tibble: 214 x 6
    ##    category       language    mother_tongue most_at_home most_at_work lang_known
    ##    <chr>          <chr>               <dbl>        <dbl>        <dbl>      <dbl>
    ##  1 Aboriginal la~ Aboriginal~           590          235           30        665
    ##  2 Non-Official ~ Afrikaans           10260         4785           85      23415
    ##  3 Non-Official ~ Afro-Asiat~          1150          445           10       2775
    ##  4 Non-Official ~ Akan (Twi)          13460         5985           25      22150
    ##  5 Non-Official ~ Albanian            26895        13135          345      31930
    ##  6 Aboriginal la~ Algonquian~            45           10            0        120
    ##  7 Aboriginal la~ Algonquin            1260          370           40       2480
    ##  8 Non-Official ~ American S~          2685         3020         1145      21930
    ##  9 Non-Official ~ Amharic             22465        12785          200      33670
    ## 10 Non-Official ~ Arabic             419890       223535         5585     629055
    ## # ... with 204 more rows
…
