…
``` r
nlevels(gapminder$country)
```

    ## [1] 142

``` r
h_countries <- gapminder %>% 
  filter(country %in% c("Egypt", "Haiti", "Romania", "Thailand", "Venezuela"))

h_countries
```

    ## # A tibble: 60 x 6
    ##    country continent  year lifeExp      pop gdpPercap
    ##    <fct>   <fct>     <int>   <dbl>    <int>     <dbl>
    ##  1 Egypt   Africa     1952    41.9 22223309     1419.
    ##  2 Egypt   Africa     1957    44.4 25009741     1459.
    ##  3 Egypt   Africa     1962    47.0 28173309     1693.
    ##  4 Egypt   Africa     1967    49.3 31681188     1815.
    ##  5 Egypt   Africa     1972    51.1 34807417     2024.
    ##  6 Egypt   Africa     1977    53.3 38783863     2785.
    ##  7 Egypt   Africa     1982    56.0 45681811     3504.
    ##  8 Egypt   Africa     1987    59.8 52799062     3885.
    ##  9 Egypt   Africa     1992    63.7 59402198     3795.
    ## 10 Egypt   Africa     1997    67.2 66134291     4173.
    ## # ... with 50 more rows
…
