…
Left join

``` r
am_af_df <- gapminder %>% 
  filter(str_detect(continent, "^A[m|f]")) %>% 
  select(1, 2) %>%
  distinct()
  # group_by(country) %>% 
  # slice(1)

am_af_df
```

    ## # A tibble: 77 x 2
    ##    country      continent
    ##    <fct>        <fct>    
    ##  1 Algeria      Africa   
    ##  2 Angola       Africa   
    ##  3 Argentina    Americas 
    ##  4 Benin        Africa   
    ##  5 Bolivia      Americas 
    ##  6 Botswana     Africa   
    ##  7 Brazil       Americas 
    ##  8 Burkina Faso Africa   
    ##  9 Burundi      Africa   
    ## 10 Cameroon     Africa   
    ## # ... with 67 more rows

``` r
country_codes
```

    ## # A tibble: 187 x 3
    ##    country     iso_alpha iso_num
    ##    <chr>       <chr>       <int>
    ##  1 Afghanistan AFG             4
    ##  2 Albania     ALB             8
    ##  3 Algeria     DZA            12
    ##  4 Angola      AGO            24
    ##  5 Argentina   ARG            32
    ##  6 Armenia     ARM            51
    ##  7 Aruba       ABW           533
    ##  8 Australia   AUS            36
    ##  9 Austria     AUT            40
    ## 10 Azerbaijan  AZE            31
    ## # ... with 177 more rows

``` r
left_join(am_af_df, country_codes, by = c("country" = "country"))
```

    ## # A tibble: 77 x 4
    ##    country      continent iso_alpha iso_num
    ##    <chr>        <fct>     <chr>       <int>
    ##  1 Algeria      Africa    DZA            12
    ##  2 Angola       Africa    AGO            24
    ##  3 Argentina    Americas  ARG            32
    ##  4 Benin        Africa    BEN           204
    ##  5 Bolivia      Americas  BOL            68
    ##  6 Botswana     Africa    BWA            72
    ##  7 Brazil       Americas  BRA            76
    ##  8 Burkina Faso Africa    BFA           854
    ##  9 Burundi      Africa    BDI           108
    ## 10 Cameroon     Africa    CMR           120
    ## # ... with 67 more rows
…
